[
    {
        "command": "cc -c -Wall -Wextra -pedantic -o ringmain.o ringmain.c",
        "directory": "/home/mschroetter/project/SimpleErrorChecker/example/structv2",
        "file": "/home/mschroetter/project/SimpleErrorChecker/example/structv2/ringmain.c"
    },
    {
        "command": "cc -c -Wall -Wextra -pedantic -o ringbuffer_t.o ringbuffer_t.c",
        "directory": "/home/mschroetter/project/SimpleErrorChecker/example/structv2",
        "file": "/home/mschroetter/project/SimpleErrorChecker/example/structv2/ringbuffer_t.c"
    }
]